wave.vcd
$date
	Fri Apr 26 07:16:52 2024
$end
$version
	Icarus Verilog
$end
$timescale
	1ps
$end
$scope module test $end
$scope module dat $end
$var wire 1 ! clk $end
$var wire 1 " count $end
$var wire 1 # reset $end
$var wire 1 $ w4 $end
$var wire 1 % w3 $end
$var wire 1 & w2 $end
$var wire 1 ' w1 $end
$var wire 4 ( plusOne [3:0] $end
$var wire 4 ) out [3:0] $end
$scope module d1 $end
$var wire 1 ! clk $end
$var wire 1 # reset $end
$var wire 1 ' D $end
$var reg 1 * Q $end
$upscope $end
$scope module d2 $end
$var wire 1 ! clk $end
$var wire 1 # reset $end
$var wire 1 & D $end
$var reg 1 + Q $end
$upscope $end
$scope module d3 $end
$var wire 1 ! clk $end
$var wire 1 # reset $end
$var wire 1 % D $end
$var reg 1 , Q $end
$upscope $end
$scope module d4 $end
$var wire 1 ! clk $end
$var wire 1 # reset $end
$var wire 1 $ D $end
$var reg 1 - Q $end
$upscope $end
$scope module mux1 $end
$var wire 1 . a $end
$var wire 1 / b $end
$var wire 1 " sel $end
$var wire 1 ' out $end
$upscope $end
$scope module mux2 $end
$var wire 1 0 a $end
$var wire 1 1 b $end
$var wire 1 " sel $end
$var wire 1 & out $end
$upscope $end
$scope module mux3 $end
$var wire 1 2 a $end
$var wire 1 3 b $end
$var wire 1 " sel $end
$var wire 1 % out $end
$upscope $end
$scope module mux4 $end
$var wire 1 4 a $end
$var wire 1 5 b $end
$var wire 1 " sel $end
$var wire 1 $ out $end
$upscope $end
$scope module rca $end
$var wire 4 6 a [3:0] $end
$var wire 4 7 b [3:0] $end
$var wire 1 8 cIn $end
$var wire 1 9 w3 $end
$var wire 1 : w2 $end
$var wire 1 ; w1 $end
$var wire 4 < sum [3:0] $end
$var wire 1 = cOut $end
$scope module fA1 $end
$var wire 1 > a $end
$var wire 1 ? b $end
$var wire 1 8 cIn $end
$var wire 1 ; cOut $end
$var wire 1 @ sum $end
$upscope $end
$scope module fA2 $end
$var wire 1 A a $end
$var wire 1 B b $end
$var wire 1 ; cIn $end
$var wire 1 : cOut $end
$var wire 1 C sum $end
$upscope $end
$scope module fA3 $end
$var wire 1 D a $end
$var wire 1 E b $end
$var wire 1 : cIn $end
$var wire 1 9 cOut $end
$var wire 1 F sum $end
$upscope $end
$scope module fA4 $end
$var wire 1 G a $end
$var wire 1 H b $end
$var wire 1 9 cIn $end
$var wire 1 = cOut $end
$var wire 1 I sum $end
$upscope $end
$upscope $end
$upscope $end
$upscope $end
$enddefinitions $end
$comment Show the parameter values. $end
$dumpall
$end
#0
$dumpvars
0I
0H
0G
0F
0E
0D
0C
0B
0A
1@
1?
0>
0=
b1 <
0;
0:
09
08
b1 7
b0 6
05
04
03
02
01
00
0/
1.
0-
0,
0+
0*
b0 )
b1 (
1'
0&
0%
0$
0#
1"
1!
$end
#10000
0!
#20000
1&
10
0'
1C
0.
1;
b10 (
b10 <
0@
1/
1>
b1 )
b1 6
1*
1!
1#
#30000
0!
#40000
0%
02
1'
1&
0F
1.
0;
10
0:
1@
b11 (
b11 <
1C
0/
0>
11
1A
0*
b10 )
b10 6
1+
1!
#50000
0!
#60000
1%
12
1F
0&
1:
00
0'
0C
0.
1;
b100 (
b100 <
0@
1/
1>
b11 )
b11 6
1*
1!
#70000
0!
#80000
0$
04
1'
0&
1%
0I
1.
0;
00
0:
12
09
1@
0C
b101 (
b101 <
1F
0/
0>
01
0A
13
1D
0*
0+
b100 )
b100 6
1,
1!
#90000
0!
#100000
1&
10
0'
1C
0.
1;
b110 (
b110 <
0@
1/
1>
b101 )
b101 6
1*
1!
#110000
0!
#120000
0$
04
0I
1%
09
12
1'
1&
1F
1.
0;
10
0:
1@
b111 (
b111 <
1C
0/
0>
11
1A
0*
b110 )
b110 6
1+
1!
#130000
0!
#140000
1$
14
1I
0%
19
02
0F
0&
1:
00
0'
0C
0.
1;
b1000 (
b1000 <
0@
1/
1>
b111 )
b111 6
1*
1!
#150000
0!
#160000
1'
0&
0%
1$
1.
0;
00
0:
02
09
14
0=
1@
0C
0F
b1001 (
b1001 <
1I
0/
0>
01
0A
03
0D
15
1G
0*
0+
0,
b1000 )
b1000 6
1-
1!
#170000
0!
#180000
1&
10
0'
1C
0.
1;
b1010 (
b1010 <
0@
1/
1>
b1001 )
b1001 6
1*
1!
#190000
0!
#200000
0%
02
1'
1&
0F
1.
0;
10
0:
1@
b1011 (
b1011 <
1C
0/
0>
11
1A
0*
b1010 )
b1010 6
1+
1!
#210000
0!
#220000
0$
0&
04
00
0I
b1 (
b1 <
0C
05
0G
01
0A
0-
b0 )
b0 6
0+
1!
0#
#230000
0!
#240000
1!
#250000
0!
#260000
1!
#270000
0!
1#
#280000
1&
10
0'
1C
0.
1;
b10 (
b10 <
0@
1/
1>
b1 )
b1 6
1*
1!
#290000
0!
#300000
0%
02
1&
0F
1'
10
0:
1.
0;
1C
b11 (
b11 <
1@
11
1A
0/
0>
1+
b10 )
b10 6
0*
1!
#310000
0!
#320000
1%
12
1F
0&
1:
00
0'
0C
0.
1;
b100 (
b100 <
0@
1/
1>
b11 )
b11 6
1*
1!
#330000
0!
#340000
0$
04
1%
0I
0&
1'
12
09
00
0:
1.
0;
1F
0C
b101 (
b101 <
1@
13
1D
01
0A
0/
0>
1,
0+
b100 )
b100 6
0*
1!
#350000
0!
#360000
1&
10
0'
1C
0.
1;
b110 (
b110 <
0@
1/
1>
b101 )
b101 6
1*
1!
#370000
0!
#380000
0$
04
0I
1%
09
12
1&
1F
1'
10
0:
1.
0;
1C
b111 (
b111 <
1@
11
1A
0/
0>
1+
b110 )
b110 6
0*
1!
#390000
0!
#400000
1$
14
1I
0%
19
02
0F
0&
1:
00
0'
0C
0.
1;
b1000 (
b1000 <
0@
1/
1>
b111 )
b111 6
1*
1!
#410000
0!
#420000
1$
0%
0&
1'
14
0=
02
09
00
0:
1.
0;
1I
0F
0C
b1001 (
b1001 <
1@
15
1G
03
0D
01
0A
0/
0>
1-
0,
0+
b1000 )
b1000 6
0*
1!
#430000
0!
#440000
1&
10
0'
1C
0.
1;
b1010 (
b1010 <
0@
1/
1>
b1001 )
b1001 6
1*
1!
#450000
1'
0&
0!
0"
#460000
1!
#470000
0!
#480000
1!
#490000
0!
#500000
1!
#510000
0'
1&
0!
1"
#520000
0%
02
1'
1&
0F
1.
0;
10
0:
1@
b1011 (
b1011 <
1C
0/
0>
11
1A
0*
b1010 )
b1010 6
1+
1!
#530000
0!
#540000
1%
12
1F
0&
1:
00
0'
0C
0.
1;
b1100 (
b1100 <
0@
1/
1>
b1011 )
b1011 6
1*
1!
#550000
0!
#560000
1$
0=
14
1'
0&
1%
1I
1.
0;
00
0:
12
09
1@
0C
b1101 (
b1101 <
1F
0/
0>
01
0A
13
1D
0*
0+
b1100 )
b1100 6
1,
1!
#570000
0!
#580000
1&
10
0'
1C
0.
1;
b1110 (
b1110 <
0@
1/
1>
b1101 )
b1101 6
1*
1!
#590000
0!
#600000
1$
0=
14
1I
1%
09
12
1'
1&
1F
1.
0;
10
0:
1@
b1111 (
b1111 <
1C
0/
0>
11
1A
0*
b1110 )
b1110 6
1+
1!
#610000
0!
#620000
0$
1=
04
0I
0%
19
02
0F
0&
1:
00
0'
0C
0.
1;
b0 (
b0 <
0@
1/
1>
b1111 )
b1111 6
1*
1!
#630000
0!
#640000
1'
0&
0%
0$
1.
0;
00
0:
02
09
04
0=
1@
0C
0F
b1 (
b1 <
0I
0/
0>
01
0A
03
0D
05
0G
0*
0+
0,
b0 )
b0 6
0-
1!
#650000
0!
#660000
1&
10
0'
1C
0.
1;
b10 (
b10 <
0@
1/
1>
b1 )
b1 6
1*
1!
#670000
0!
#680000
0%
02
1'
1&
0F
1.
0;
10
0:
1@
b11 (
b11 <
1C
0/
0>
11
1A
0*
b10 )
b10 6
1+
1!
#690000
0'
0!
0#
0"
#700000
00
b1 (
b1 <
0C
0&
01
0A
b0 )
b0 6
0+
1!
#710000
0!
#720000
1!
#730000
0!
#740000
1!
#750000
0!
#760000
1&
10
1C
0.
1;
b10 (
b10 <
0@
1/
1>
b1 )
b1 6
1*
0'
1!
1#
1"
#770000
0!
#780000
0%
02
1&
0F
1'
10
0:
1.
0;
1C
b11 (
b11 <
1@
11
1A
0/
0>
1+
b10 )
b10 6
0*
1!
#790000
0!
#800000
1%
12
1F
0&
1:
00
0'
0C
0.
1;
b100 (
b100 <
0@
1/
1>
b11 )
b11 6
1*
1!
#810000
0!
#820000
0$
04
1%
0I
0&
1'
12
09
00
0:
1.
0;
1F
0C
b101 (
b101 <
1@
13
1D
01
0A
0/
0>
1,
0+
b100 )
b100 6
0*
1!
#830000
0!
#840000
1&
10
0'
1C
0.
1;
b110 (
b110 <
0@
1/
1>
b101 )
b101 6
1*
1!
#850000
0!
#860000
0$
04
0I
1%
09
12
1&
1F
1'
10
0:
1.
0;
1C
b111 (
b111 <
1@
11
1A
0/
0>
1+
b110 )
b110 6
0*
1!
#870000
0!
#880000
1$
14
1I
0%
19
02
0F
0&
1:
00
0'
0C
0.
1;
b1000 (
b1000 <
0@
1/
1>
b111 )
b111 6
1*
1!
#890000
0!
#900000
1$
0%
0&
1'
14
0=
02
09
00
0:
1.
0;
1I
0F
0C
b1001 (
b1001 <
1@
15
1G
03
0D
01
0A
0/
0>
1-
0,
0+
b1000 )
b1000 6
0*
1!
#910000
0!
#920000
1&
10
0'
1C
0.
1;
b1010 (
b1010 <
0@
1/
1>
b1001 )
b1001 6
1*
1!
#930000
0!
#940000
0%
02
1&
0F
1'
10
0:
1.
0;
1C
b1011 (
b1011 <
1@
11
1A
0/
0>
1+
b1010 )
b1010 6
0*
1!
#950000
0!
#960000
1%
12
1F
0&
1:
00
0'
0C
0.
1;
b1100 (
b1100 <
0@
1/
1>
b1011 )
b1011 6
1*
1!
#970000
0!
#980000
1$
0=
14
1%
1I
0&
1'
12
09
00
0:
1.
0;
1F
0C
b1101 (
b1101 <
1@
13
1D
01
0A
0/
0>
1,
0+
b1100 )
b1100 6
0*
1!
#990000
0!
#1000000
1&
10
0'
1C
0.
1;
b1110 (
b1110 <
0@
1/
1>
b1101 )
b1101 6
1*
1!
